<?xml version="1.0" encoding="UTF-8" standalone="no"?>
<graphml xmlns="http://graphml.graphdrawing.org/xmlns" xmlns:xsi="http://www.w3.org/2001/XMLSchema-instance" xmlns:y="http://www.yworks.com/xml/graphml" xmlns:yed="http://www.yworks.com/xml/yed/3" xsi:schemaLocation="http://graphml.graphdrawing.org/xmlns http://www.yworks.com/xml/schema/graphml/1.1/ygraphml.xsd">
  <!--Created by yEd 3.12.2-->
  <key for="graphml" id="d0" yfiles.type="resources"/>
  <key for="port" id="d1" yfiles.type="portgraphics"/>
  <key for="port" id="d2" yfiles.type="portgeometry"/>
  <key for="port" id="d3" yfiles.type="portuserdata"/>
  <key attr.name="url" attr.type="string" for="node" id="d4"/>
  <key attr.name="description" attr.type="string" for="node" id="d5"/>
  <key for="node" id="d6" yfiles.type="nodegraphics"/>
  <key attr.name="Description" attr.type="string" for="graph" id="d7"/>
  <key attr.name="url" attr.type="string" for="edge" id="d8"/>
  <key attr.name="description" attr.type="string" for="edge" id="d9"/>
  <key for="edge" id="d10" yfiles.type="edgegraphics"/>
  <graph edgedefault="directed" id="G">
    <data key="d7"/>
    <node id="n0">
      <data key="d6">
        <y:GenericNode configuration="com.yworks.flowchart.process">
          <y:Geometry height="121.0" width="808.0" x="187.0" y="182.0"/>
          <y:Fill color="#E8EEF7" color2="#B7C9E3" transparent="false"/>
          <y:BorderStyle color="#000000" type="line" width="1.0"/>
          <y:NodeLabel alignment="center" autoSizePolicy="content" fontFamily="Dialog" fontSize="12" fontStyle="plain" hasBackgroundColor="false" hasLineColor="false" hasText="false" height="4.0" modelName="custom" textColor="#000000" visible="true" width="4.0" x="402.0" y="58.5">
            <y:LabelModel>
              <y:SmartNodeLabelModel distance="4.0"/>
            </y:LabelModel>
            <y:ModelParameter>
              <y:SmartNodeLabelModelParameter labelRatioX="0.0" labelRatioY="0.0" nodeRatioX="0.0" nodeRatioY="0.0" offsetX="0.0" offsetY="0.0" upX="0.0" upY="-1.0"/>
            </y:ModelParameter>
          </y:NodeLabel>
        </y:GenericNode>
      </data>
    </node>
    <node id="n1">
      <data key="d6">
        <y:GenericNode configuration="com.yworks.flowchart.process">
          <y:Geometry height="121.0" width="291.0" x="187.0" y="182.0"/>
          <y:Fill color="#00FFFF" color2="#00FFFF" transparent="false"/>
          <y:BorderStyle color="#000000" type="line" width="1.0"/>
          <y:NodeLabel alignment="center" autoSizePolicy="content" fontFamily="Courier New" fontSize="16" fontStyle="bold" hasBackgroundColor="false" hasLineColor="false" height="58.375" modelName="custom" textColor="#000000" visible="true" width="272.84375" x="9.078125" y="31.3125">Ядро XNU,
память для Runtime-сервисов,
важные данные boot.efi
<y:LabelModel>
              <y:SmartNodeLabelModel distance="4.0"/>
            </y:LabelModel>
            <y:ModelParameter>
              <y:SmartNodeLabelModelParameter labelRatioX="0.0" labelRatioY="0.0" nodeRatioX="0.0" nodeRatioY="0.0" offsetX="0.0" offsetY="0.0" upX="0.0" upY="-1.0"/>
            </y:ModelParameter>
          </y:NodeLabel>
        </y:GenericNode>
      </data>
    </node>
    <node id="n2">
      <data key="d6">
        <y:GenericNode configuration="com.yworks.flowchart.process">
          <y:Geometry height="121.0" width="253.0" x="478.0" y="182.0"/>
          <y:Fill color="#FF0000" color2="#FF0000" transparent="false"/>
          <y:BorderStyle color="#000000" type="line" width="1.0"/>
          <y:NodeLabel alignment="center" autoSizePolicy="content" fontFamily="Courier New" fontSize="16" fontStyle="bold" hasBackgroundColor="false" hasLineColor="false" height="58.375" modelName="custom" textColor="#000000" visible="true" width="215.234375" x="18.8828125" y="31.3125">Физическая оперативная
память для
loader и preloader<y:LabelModel>
              <y:SmartNodeLabelModel distance="4.0"/>
            </y:LabelModel>
            <y:ModelParameter>
              <y:SmartNodeLabelModelParameter labelRatioX="0.0" labelRatioY="0.0" nodeRatioX="0.0" nodeRatioY="0.0" offsetX="0.0" offsetY="0.0" upX="0.0" upY="-1.0"/>
            </y:ModelParameter>
          </y:NodeLabel>
        </y:GenericNode>
      </data>
    </node>
    <node id="n3">
      <data key="d6">
        <y:GenericNode configuration="com.yworks.flowchart.process">
          <y:Geometry height="121.0" width="264.0" x="731.0" y="182.0"/>
          <y:Fill color="#00FF00" color2="#00FF00" transparent="false"/>
          <y:BorderStyle color="#000000" type="line" width="1.0"/>
          <y:NodeLabel alignment="center" autoSizePolicy="content" fontFamily="Courier New" fontSize="16" fontStyle="bold" hasBackgroundColor="false" hasLineColor="false" height="22.125" modelName="custom" textColor="#000000" visible="true" width="157.625" x="53.1875" y="49.4375">Свободная память<y:LabelModel>
              <y:SmartNodeLabelModel distance="4.0"/>
            </y:LabelModel>
            <y:ModelParameter>
              <y:SmartNodeLabelModelParameter labelRatioX="0.0" labelRatioY="0.0" nodeRatioX="0.0" nodeRatioY="0.0" offsetX="0.0" offsetY="0.0" upX="0.0" upY="-1.0"/>
            </y:ModelParameter>
          </y:NodeLabel>
        </y:GenericNode>
      </data>
    </node>
  </graph>
  <data key="d0">
    <y:Resources/>
  </data>
</graphml>
